mc_criterios  Quality  Safety  Design
1    7    6
1/7  1    4
6    1/4  1

mcp_quality  car1  car2  car3  car4
1    6    1/4  4
1/6  1    1/6  5
4    6    1    6
1/4  1/5  1/6  1

mcp_safety  car1  car2  car3  car4
1    1/6  1/5  6
6    1    4    7
5    1/4  1    5
1/6  1/7  1/5  1

mcp_design  car1  car2  car3  car4
1    7    1/6  6 
1/7  1    1/7  4
6    7    1    5
1/6  1/4  1/5  1


